{
    "def_groups": [
        {
            "derived_forms": {
                "adverb": "scoffingly",
                "noun": "scoffer"
            },
            "gram_groups": [
                {
                    "defs": [
                        {
                            "def": "an expression of mocking contempt, scorn, or derision; jeer"
                        },
                        {
                            "def": "an object of mocking contempt, scorn, etc."
                        }
                    ],
                    "value": "noun"
                },
                {
                    "defs": [
                        {
                            "def": "to mock at or deride"
                        }
                    ],
                    "value": "transitive verb"
                },
                {
                    "defs": [
                        {
                            "def": "to show mocking contempt, scorn, or derision, esp. by language; jeer"
                        }
                    ],
                    "value": "intransitive verb"
                }
            ],
            "word": "scoff"
        },
        {
            "gram_groups": [
                {
                    "defs": [
                        {
                            "category": "mainly British, slang",
                            "def": "food or rations"
                        }
                    ],
                    "value": "noun"
                },
                {
                    "defs": [
                        {
                            "def": "to eat or devour"
                        },
                        {
                            "def": "to plunder or seize"
                        }
                    ],
                    "value": "transitive verb intransitive verb"
                }
            ],
            "word": "scoff"
        }
    ],
    "examples": [
        {
            "example": "His words were a small Band-Aid over her open wounds, enough for her to curl her lip and scoff."
        }
    ],
    "frequency": "Used Occasionally",
    "nearby_words": [
        "scleroma",
        "sclerometer",
        "scleroprotein",
        "sclerosed",
        "sclerosis",
        "sclerotic",
        "sclerotium",
        "sclerotomy",
        "sclerous",
        "ScM",
        "scofflaw",
        "scold",
        "scolecite",
        "scolex",
        "scoliosis",
        "scollop",
        "scombroid",
        "sconce",
        "scone",
        "scooch"
    ],
    "related_words": [
        "shove"
    ],
    "synonyms": [
        {
            "gram_groups": [
                {
                    "gram_group": {
                        "synonyms": [
                            {
                                "line": [
                                    {
                                        "syn": "scorn"
                                    },
                                    {
                                        "syn": "belittle"
                                    },
                                    {
                                        "syn": "deride"
                                    },
                                    {
                                        "syn": "despise"
                                    },
                                    {
                                        "syn": "jeer"
                                    },
                                    {
                                        "category": "informal",
                                        "syn": "knock"
                                    },
                                    {
                                        "syn": "laugh at"
                                    },
                                    {
                                        "syn": "mock"
                                    },
                                    {
                                        "syn": "pooh-pooh"
                                    },
                                    {
                                        "syn": "ridicule"
                                    },
                                    {
                                        "syn": "sneer"
                                    }
                                ]
                            }
                        ],
                        "value": "verb"
                    }
                }
            ],
            "word": "scoff"
        },
        {
            "gram_groups": [
                {
                    "gram_group": {
                        "synonyms": [
                            {
                                "line": [
                                    {
                                        "syn": "gobble"
                                    },
                                    {
                                        "syn": "gobble up"
                                    },
                                    {
                                        "syn": "bolt"
                                    },
                                    {
                                        "syn": "devour"
                                    },
                                    {
                                        "syn": "gorge oneself on"
                                    },
                                    {
                                        "syn": "gulp down"
                                    },
                                    {
                                        "syn": "guzzle"
                                    },
                                    {
                                        "syn": "wolf"
                                    }
                                ]
                            }
                        ],
                        "value": "verb"
                    }
                }
            ],
            "word": "scoff"
        }
    ],
    "translations": [
        "If you scoff at something, you speak about it in a way that shows you think it is ridiculous or inadequate.At first I scoffed at the idea. scoffs, scoffing, scoffed"
    ]
}