[
    {
        "have": true,
        "link": "/dictionary/english/z",
        "title": "z"
    },
    {
        "have": true,
        "link": "/dictionary/english/z-boson",
        "title": "Z boson"
    },
    {
        "have": true,
        "link": "/dictionary/english/z-chart",
        "title": "Z chart"
    },
    {
        "have": true,
        "link": "/dictionary/english/z-particle",
        "title": "Z particle"
    },
    {
        "have": true,
        "link": "/dictionary/english/zs",
        "title": "Z's"
    },
    {
        "have": true,
        "link": "/dictionary/english/z-axis",
        "title": "z-axis"
    },
    {
        "have": true,
        "link": "/dictionary/english/z-bed",
        "title": "Z-bed"
    },
    {
        "have": true,
        "link": "/dictionary/english/za",
        "title": "za"
    },
    {
        "have": true,
        "link": "/dictionary/english/zaandam",
        "title": "Zaandam"
    },
    {
        "have": true,
        "link": "/dictionary/english/zaanstad",
        "title": "Zaanstad"
    },
    {
        "have": true,
        "link": "/dictionary/english/zabaglione",
        "title": "zabaglione"
    },
    {
        "have": true,
        "link": "/dictionary/english/zabaione",
        "title": "zabaione"
    },
    {
        "have": true,
        "link": "/dictionary/english/zabeta",
        "title": "zabeta"
    },
    {
        "have": true,
        "link": "/dictionary/english/zabra",
        "title": "zabra"
    },
    {
        "have": true,
        "link": "/dictionary/english/zabrze",
        "title": "Zabrze"
    },
    {
        "have": true,
        "link": "/dictionary/english/zabtieh",
        "title": "zabtieh"
    },
    {
        "have": true,
        "link": "/dictionary/english/zabulon",
        "title": "Zabulon"
    },
    {
        "have": true,
        "link": "/dictionary/english/zacatecas",
        "title": "Zacatecas"
    },
    {
        "have": true,
        "link": "/dictionary/english/zacaton",
        "title": "zacaton"
    },
    {
        "have": true,
        "link": "/dictionary/english/zachariah",
        "title": "Zachariah"
    },
    {
        "have": true,
        "link": "/dictionary/english/zacharias",
        "title": "Zacharias"
    },
    {
        "have": true,
        "link": "/dictionary/english/zachary",
        "title": "Zachary"
    },
    {
        "have": true,
        "link": "/dictionary/english/zack",
        "title": "zack"
    },
    {
        "have": true,
        "link": "/dictionary/english/zacynthus",
        "title": "Zacynthus"
    },
    {
        "have": true,
        "link": "/dictionary/english/zaddick",
        "title": "zaddick"
    },
    {
        "have": true,
        "link": "/dictionary/english/zaddik",
        "title": "zaddik"
    },
    {
        "have": true,
        "link": "/dictionary/english/zaffer",
        "title": "zaffer"
    },
    {
        "have": true,
        "link": "/dictionary/english/zaftig",
        "title": "zaftig"
    },
    {
        "have": true,
        "link": "/dictionary/english/zag",
        "title": "zag"
    },
    {
        "have": true,
        "link": "/dictionary/english/zagazig",
        "title": "Zagazig"
    },
    {
        "have": true,
        "link": "/dictionary/english/zaghlul",
        "title": "Zaghlul"
    },
    {
        "have": true,
        "link": "/dictionary/english/zagreb",
        "title": "Zagreb"
    },
    {
        "have": true,
        "link": "/dictionary/english/zagreus",
        "title": "Zagreus"
    },
    {
        "have": true,
        "link": "/dictionary/english/zagros-mountains",
        "title": "Zagros Mountains"
    },
    {
        "have": true,
        "link": "/dictionary/english/zahir-ud-din-muhammad",
        "title": "Zahir-ud-din Muhammad"
    },
    {
        "have": true,
        "link": "/dictionary/english/zaibatsu",
        "title": "zaibatsu"
    },
    {
        "have": true,
        "link": "/dictionary/english/zaikai",
        "title": "zaikai"
    },
    {
        "have": true,
        "link": "/dictionary/english/zaire",
        "title": "zaire"
    },
    {
        "have": true,
        "link": "/dictionary/english/zairian",
        "title": "Zaïrian"
    },
    {
        "have": true,
        "link": "/dictionary/english/zaitech",
        "title": "zaitech"
    },
    {
        "have": true,
        "link": "/dictionary/english/zakat",
        "title": "zakat"
    },
    {
        "have": true,
        "link": "/dictionary/english/zakinthos",
        "title": "Zákinthos"
    },
    {
        "have": true,
        "link": "/dictionary/english/zakouska",
        "title": "zakouska"
    },
    {
        "have": true,
        "link": "/dictionary/english/zakuska",
        "title": "zakuska"
    },
    {
        "have": true,
        "link": "/dictionary/english/zakuski",
        "title": "zakuski"
    },
    {
        "have": true,
        "link": "/dictionary/english/zakynthos",
        "title": "Zakynthos"
    },
    {
        "have": true,
        "link": "/dictionary/english/zalambdodont",
        "title": "zalambdodont"
    },
    {
        "have": true,
        "link": "/dictionary/english/zama",
        "title": "Zama"
    },
    {
        "have": true,
        "link": "/dictionary/english/zaman",
        "title": "zaman"
    },
    {
        "have": true,
        "link": "/dictionary/english/zamarra",
        "title": "zamarra"
    },
    {
        "have": true,
        "link": "/dictionary/english/zambezi",
        "title": "Zambezi"
    },
    {
        "have": true,
        "link": "/dictionary/english/zambezian",
        "title": "Zambezian"
    },
    {
        "have": true,
        "link": "/dictionary/english/zambia",
        "title": "Zambia"
    },
    {
        "have": true,
        "link": "/dictionary/english/zambian",
        "title": "Zambian"
    },
    {
        "have": true,
        "link": "/dictionary/english/zambo",
        "title": "zambo"
    },
    {
        "have": true,
        "link": "/dictionary/english/zamboanga",
        "title": "Zamboanga"
    },
    {
        "have": true,
        "link": "/dictionary/english/zambomba",
        "title": "zambomba"
    },
    {
        "have": true,
        "link": "/dictionary/english/zamboni",
        "title": "Zamboni"
    },
    {
        "have": true,
        "link": "/dictionary/english/zamboorak",
        "title": "zamboorak"
    },
    {
        "have": true,
        "link": "/dictionary/english/zambuck",
        "title": "zambuck"
    },
    {
        "have": true,
        "link": "/dictionary/english/zamenhof",
        "title": "Zamenhof"
    },
    {
        "have": true,
        "link": "/dictionary/english/zamfara",
        "title": "Zamfara"
    },
    {
        "have": true,
        "link": "/dictionary/english/zamia",
        "title": "zamia"
    },
    {
        "have": true,
        "link": "/dictionary/english/zamindar",
        "title": "zamindar"
    },
    {
        "have": true,
        "link": "/dictionary/english/zamindari",
        "title": "zamindari"
    },
    {
        "have": true,
        "link": "/dictionary/english/zamora",
        "title": "Zamora"
    },
    {
        "have": true,
        "link": "/dictionary/english/zamouse",
        "title": "zamouse"
    },
    {
        "have": true,
        "link": "/dictionary/english/zampogna",
        "title": "zampogna"
    },
    {
        "have": true,
        "link": "/dictionary/english/zampone",
        "title": "zampone"
    },
    {
        "have": true,
        "link": "/dictionary/english/zams",
        "title": "ZAMS"
    },
    {
        "have": true,
        "link": "/dictionary/english/zamyatin",
        "title": "Zamyatin"
    },
    {
        "have": true,
        "link": "/dictionary/english/zamzawed",
        "title": "zamzawed"
    },
    {
        "have": true,
        "link": "/dictionary/english/zanamivir",
        "title": "zanamivir"
    },
    {
        "have": true,
        "link": "/dictionary/english/zander",
        "title": "zander"
    },
    {
        "have": true,
        "link": "/dictionary/english/zanella",
        "title": "zanella"
    },
    {
        "have": true,
        "link": "/dictionary/english/zangbo",
        "title": "Zangbo"
    },
    {
        "have": true,
        "link": "/dictionary/english/zangwill",
        "title": "Zangwill"
    },
    {
        "have": true,
        "link": "/dictionary/english/zanier",
        "title": "zanier"
    },
    {
        "have": true,
        "link": "/dictionary/english/zanies",
        "title": "zanies"
    },
    {
        "have": true,
        "link": "/dictionary/english/zaniest",
        "title": "zaniest"
    },
    {
        "have": true,
        "link": "/dictionary/english/zanja",
        "title": "zanja"
    },
    {
        "have": true,
        "link": "/dictionary/english/zanjero",
        "title": "zanjero"
    },
    {
        "have": true,
        "link": "/dictionary/english/zante",
        "title": "Zante"
    },
    {
        "have": true,
        "link": "/dictionary/english/zantedeschia",
        "title": "zantedeschia"
    },
    {
        "have": true,
        "link": "/dictionary/english/zantewood",
        "title": "zantewood"
    },
    {
        "have": true,
        "link": "/dictionary/english/zanthoxylum",
        "title": "zanthoxylum"
    },
    {
        "have": true,
        "link": "/dictionary/english/zanu",
        "title": "Zanu"
    },
    {
        "have": true,
        "link": "/dictionary/english/zanu-pf",
        "title": "Zanu PF"
    },
    {
        "have": true,
        "link": "/dictionary/english/zany",
        "title": "zany"
    },
    {
        "have": true,
        "link": "/dictionary/english/zanyish",
        "title": "zanyish"
    },
    {
        "have": true,
        "link": "/dictionary/english/zanze",
        "title": "zanze"
    },
    {
        "have": true,
        "link": "/dictionary/english/zanzibar",
        "title": "Zanzibar"
    },
    {
        "have": true,
        "link": "/dictionary/english/zanzibari",
        "title": "Zanzibari"
    },
    {
        "have": true,
        "link": "/dictionary/english/zap",
        "title": "zap"
    },
    {
        "have": true,
        "link": "/dictionary/english/zapadnaya-dvina",
        "title": "Zapadnaya Dvina"
    },
    {
        "have": true,
        "link": "/dictionary/english/zapata",
        "title": "Zapata"
    },
    {
        "have": true,
        "link": "/dictionary/english/zapateado",
        "title": "zapateado"
    },
    {
        "have": true,
        "link": "/dictionary/english/zapateo",
        "title": "zapateo"
    },
    {
        "have": true,
        "link": "/dictionary/english/zaporozhye",
        "title": "Zaporozhye"
    },
    {
        "have": true,
        "link": "/dictionary/english/zapotec",
        "title": "Zapotec"
    },
    {
        "have": true,
        "link": "/dictionary/english/zapotecan",
        "title": "Zapotecan"
    },
    {
        "have": true,
        "link": "/dictionary/english/zapotilla",
        "title": "zapotilla"
    },
    {
        "have": true,
        "link": "/dictionary/english/zappa",
        "title": "Zappa"
    },
    {
        "have": true,
        "link": "/dictionary/english/zapped",
        "title": "zapped"
    },
    {
        "have": true,
        "link": "/dictionary/english/zapper",
        "title": "zapper"
    },
    {
        "have": true,
        "link": "/dictionary/english/zappier",
        "title": "zappier"
    },
    {
        "have": true,
        "link": "/dictionary/english/zappiest",
        "title": "zappiest"
    },
    {
        "have": true,
        "link": "/dictionary/english/zapping",
        "title": "zapping"
    },
    {
        "have": true,
        "link": "/dictionary/english/zappy",
        "title": "zappy"
    },
    {
        "have": true,
        "link": "/dictionary/english/zaptieh",
        "title": "zaptieh"
    },
    {
        "have": true,
        "link": "/dictionary/english/zapu",
        "title": "ZAPU"
    },
    {
        "have": true,
        "link": "/dictionary/english/zaqaziq",
        "title": "Zaqaziq"
    },
    {
        "have": true,
        "link": "/dictionary/english/zaragoza",
        "title": "Zaragoza"
    },
    {
        "have": true,
        "link": "/dictionary/english/zarape",
        "title": "zarape"
    },
    {
        "have": true,
        "link": "/dictionary/english/zarathustra",
        "title": "Zarathustra"
    },
    {
        "have": true,
        "link": "/dictionary/english/zarathustrian",
        "title": "Zarathustrian"
    },
    {
        "have": true,
        "link": "/dictionary/english/zaratite",
        "title": "zaratite"
    },
    {
        "have": true,
        "link": "/dictionary/english/zardari",
        "title": "Zardari"
    },
    {
        "have": true,
        "link": "/dictionary/english/zareba",
        "title": "zareba"
    },
    {
        "have": true,
        "link": "/dictionary/english/zarf",
        "title": "zarf"
    },
    {
        "have": true,
        "link": "/dictionary/english/zari",
        "title": "zari"
    },
    {
        "have": true,
        "link": "/dictionary/english/zaria",
        "title": "Zaria"
    },
    {
        "have": true,
        "link": "/dictionary/english/zarnec",
        "title": "zarnec"
    },
    {
        "have": true,
        "link": "/dictionary/english/zarqa",
        "title": "Zarqa"
    },
    {
        "have": true,
        "link": "/dictionary/english/zarzuela",
        "title": "zarzuela"
    },
    {
        "have": true,
        "link": "/dictionary/english/zastruga",
        "title": "zastruga"
    },
    {
        "have": true,
        "link": "/dictionary/english/zati",
        "title": "zati"
    },
    {
        "have": true,
        "link": "/dictionary/english/zatlers",
        "title": "Zatlers"
    },
    {
        "have": true,
        "link": "/dictionary/english/zatopek",
        "title": "Zátopek"
    },
    {
        "have": true,
        "link": "/dictionary/english/zax",
        "title": "zax"
    },
    {
        "have": true,
        "link": "/dictionary/english/zayin",
        "title": "zayin"
    },
    {
        "have": true,
        "link": "/dictionary/english/zazen",
        "title": "zazen"
    },
    {
        "have": true,
        "link": "/dictionary/english/zb",
        "title": "ZB"
    },
    {
        "have": true,
        "link": "/dictionary/english/zb-station",
        "title": "ZB station"
    },
    {
        "have": true,
        "link": "/dictionary/english/zcc",
        "title": "ZCC"
    },
    {
        "have": true,
        "link": "/dictionary/english/zea",
        "title": "Zea"
    },
    {
        "have": true,
        "link": "/dictionary/english/zeal",
        "title": "zeal"
    },
    {
        "have": true,
        "link": "/dictionary/english/zealand",
        "title": "Zealand"
    },
    {
        "have": true,
        "link": "/dictionary/english/zealful",
        "title": "zealful"
    },
    {
        "have": true,
        "link": "/dictionary/english/zealless",
        "title": "zealless"
    },
    {
        "have": true,
        "link": "/dictionary/english/zealot",
        "title": "zealot"
    },
    {
        "have": true,
        "link": "/dictionary/english/zealotism",
        "title": "zealotism"
    },
    {
        "have": true,
        "link": "/dictionary/english/zealotry",
        "title": "zealotry"
    },
    {
        "have": true,
        "link": "/dictionary/english/zealous",
        "title": "zealous"
    },
    {
        "have": true,
        "link": "/dictionary/english/zeami",
        "title": "Zeami"
    },
    {
        "have": true,
        "link": "/dictionary/english/zeatin",
        "title": "zeatin"
    },
    {
        "have": true,
        "link": "/dictionary/english/zebec",
        "title": "zebec"
    },
    {
        "have": true,
        "link": "/dictionary/english/zebedee",
        "title": "Zebedee"
    },
    {
        "have": true,
        "link": "/dictionary/english/zebra",
        "title": "zebra"
    },
    {
        "have": true,
        "link": "/dictionary/english/zebra-crossing",
        "title": "zebra crossing"
    },
    {
        "have": true,
        "link": "/dictionary/english/zebra-finch",
        "title": "zebra finch"
    },
    {
        "have": true,
        "link": "/dictionary/english/zebra-fish",
        "title": "zebra fish"
    },
    {
        "have": true,
        "link": "/dictionary/english/zebra-mussel",
        "title": "zebra mussel"
    },
    {
        "have": true,
        "link": "/dictionary/english/zebra-plant",
        "title": "zebra plant"
    },
    {
        "have": true,
        "link": "/dictionary/english/zebra-stripes",
        "title": "zebra stripes"
    },
    {
        "have": true,
        "link": "/dictionary/english/zebrafish",
        "title": "zebrafish"
    },
    {
        "have": true,
        "link": "/dictionary/english/zebrano",
        "title": "zebrano"
    },
    {
        "have": true,
        "link": "/dictionary/english/zebrass",
        "title": "zebrass"
    },
    {
        "have": true,
        "link": "/dictionary/english/zebrawood",
        "title": "zebrawood"
    },
    {
        "have": true,
        "link": "/dictionary/english/zebrina",
        "title": "zebrina"
    },
    {
        "have": true,
        "link": "/dictionary/english/zebrinny",
        "title": "zebrinny"
    },
    {
        "have": true,
        "link": "/dictionary/english/zebrula",
        "title": "zebrula"
    },
    {
        "have": true,
        "link": "/dictionary/english/zebu",
        "title": "zebu"
    },
    {
        "have": true,
        "link": "/dictionary/english/zebub",
        "title": "zebub"
    },
    {
        "have": true,
        "link": "/dictionary/english/zebulun",
        "title": "Zebulun"
    },
    {
        "have": true,
        "link": "/dictionary/english/zecchini",
        "title": "zecchini"
    },
    {
        "have": true,
        "link": "/dictionary/english/zecchino",
        "title": "zecchino"
    },
    {
        "have": true,
        "link": "/dictionary/english/zech",
        "title": "Zech."
    },
    {
        "have": true,
        "link": "/dictionary/english/zechariah",
        "title": "Zechariah"
    },
    {
        "have": true,
        "link": "/dictionary/english/zechin",
        "title": "zechin"
    },
    {
        "have": true,
        "link": "/dictionary/english/zed",
        "title": "zed"
    },
    {
        "have": true,
        "link": "/dictionary/english/zedekiah",
        "title": "Zedekiah"
    },
    {
        "have": true,
        "link": "/dictionary/english/zedoary",
        "title": "zedoary"
    },
    {
        "have": true,
        "link": "/dictionary/english/zeds",
        "title": "zeds"
    },
    {
        "have": true,
        "link": "/dictionary/english/zee",
        "title": "zee"
    },
    {
        "have": true,
        "link": "/dictionary/english/zeebrugge",
        "title": "Zeebrugge"
    },
    {
        "have": true,
        "link": "/dictionary/english/zeeland",
        "title": "Zeeland"
    },
    {
        "have": true,
        "link": "/dictionary/english/zeelander",
        "title": "Zeelander"
    },
    {
        "have": true,
        "link": "/dictionary/english/zeeman",
        "title": "Zeeman"
    },
    {
        "have": true,
        "link": "/dictionary/english/zeeman-effect",
        "title": "Zeeman effect"
    },
    {
        "have": true,
        "link": "/dictionary/english/zeffirelli",
        "title": "Zeffirelli"
    },
    {
        "have": true,
        "link": "/dictionary/english/zein",
        "title": "zein"
    },
    {
        "have": true,
        "link": "/dictionary/english/zeist",
        "title": "Zeist"
    },
    {
        "have": true,
        "link": "/dictionary/english/zeitgeber",
        "title": "zeitgeber"
    },
    {
        "have": true,
        "link": "/dictionary/english/zeitgeist",
        "title": "zeitgeist"
    },
    {
        "have": true,
        "link": "/dictionary/english/zeitgeisty",
        "title": "zeitgeisty"
    },
    {
        "have": true,
        "link": "/dictionary/english/zek",
        "title": "zek"
    },
    {
        "have": true,
        "link": "/dictionary/english/zel",
        "title": "zel"
    },
    {
        "have": true,
        "link": "/dictionary/english/zelatrix",
        "title": "zelatrix"
    },
    {
        "have": true,
        "link": "/dictionary/english/zelig",
        "title": "Zelig"
    },
    {
        "have": true,
        "link": "/dictionary/english/zelkova",
        "title": "zelkova"
    },
    {
        "have": true,
        "link": "/dictionary/english/zellweger",
        "title": "Zellweger"
    },
    {
        "have": true,
        "link": "/dictionary/english/zelophobia",
        "title": "zelophobia"
    },
    {
        "have": true,
        "link": "/dictionary/english/zelophobic",
        "title": "zelophobic"
    },
    {
        "have": true,
        "link": "/dictionary/english/zeloso",
        "title": "zeloso"
    },
    {
        "have": true,
        "link": "/dictionary/english/zelotypia",
        "title": "zelotypia"
    },
    {
        "have": true,
        "link": "/dictionary/english/zemindar",
        "title": "zemindar"
    },
    {
        "have": true,
        "link": "/dictionary/english/zemindary",
        "title": "zemindary"
    },
    {
        "have": true,
        "link": "/dictionary/english/zemlinsky",
        "title": "Zemlinsky"
    },
    {
        "have": true,
        "link": "/dictionary/english/zemlya-frantsa-iosifa",
        "title": "Zemlya Frantsa Iosifa"
    },
    {
        "have": true,
        "link": "/dictionary/english/zemstvo",
        "title": "zemstvo"
    },
    {
        "have": true,
        "link": "/dictionary/english/zen",
        "title": "Zen"
    },
    {
        "have": true,
        "link": "/dictionary/english/zen-buddhism",
        "title": "Zen Buddhism"
    },
    {
        "have": true,
        "link": "/dictionary/english/zen-buddhist",
        "title": "Zen Buddhist"
    },
    {
        "have": true,
        "link": "/dictionary/english/zenaida",
        "title": "zenaida"
    },
    {
        "have": true,
        "link": "/dictionary/english/zenaida-dove",
        "title": "zenaida (dove)"
    },
    {
        "have": true,
        "link": "/dictionary/english/zenana",
        "title": "zenana"
    },
    {
        "have": true,
        "link": "/dictionary/english/zend",
        "title": "Zend"
    },
    {
        "have": true,
        "link": "/dictionary/english/zend-avesta",
        "title": "Zend-Avesta"
    },
    {
        "have": true,
        "link": "/dictionary/english/zendik",
        "title": "zendik"
    },
    {
        "have": true,
        "link": "/dictionary/english/zener-diode",
        "title": "Zener diode"
    },
    {
        "have": true,
        "link": "/dictionary/english/zenger",
        "title": "Zenger"
    },
    {
        "have": true,
        "link": "/dictionary/english/zenith",
        "title": "zenith"
    },
    {
        "have": true,
        "link": "/dictionary/english/zenith-telescope",
        "title": "zenith telescope"
    },
    {
        "have": true,
        "link": "/dictionary/english/zenithal-projection",
        "title": "zenithal projection"
    },
    {
        "have": true,
        "link": "/dictionary/english/zeno",
        "title": "Zeno"
    },
    {
        "have": true,
        "link": "/dictionary/english/zeno-of-citium",
        "title": "Zeno of Citium"
    },
    {
        "have": true,
        "link": "/dictionary/english/zeno-of-elea",
        "title": "Zeno of Elea"
    },
    {
        "have": true,
        "link": "/dictionary/english/zenobia",
        "title": "Zenobia"
    },
    {
        "have": true,
        "link": "/dictionary/english/zeolite",
        "title": "zeolite"
    },
    {
        "have": true,
        "link": "/dictionary/english/zeolitiform",
        "title": "zeolitiform"
    },
    {
        "have": true,
        "link": "/dictionary/english/zep",
        "title": "zep"
    },
    {
        "have": true,
        "link": "/dictionary/english/zeph",
        "title": "Zeph."
    },
    {
        "have": true,
        "link": "/dictionary/english/zephaniah",
        "title": "Zephaniah"
    },
    {
        "have": true,
        "link": "/dictionary/english/zephyr",
        "title": "zephyr"
    },
    {
        "have": true,
        "link": "/dictionary/english/zephyrus",
        "title": "Zephyrus"
    },
    {
        "have": true,
        "link": "/dictionary/english/zeppelin",
        "title": "zeppelin"
    },
    {
        "have": true,
        "link": "/dictionary/english/zeppole",
        "title": "zeppole"
    },
    {
        "have": true,
        "link": "/dictionary/english/zepto",
        "title": "zepto-"
    },
    {
        "have": true,
        "link": "/dictionary/english/zeptosecond",
        "title": "zeptosecond"
    },
    {
        "have": true,
        "link": "/dictionary/english/zerda",
        "title": "zerda"
    },
    {
        "have": true,
        "link": "/dictionary/english/zerk",
        "title": "zerk"
    },
    {
        "have": true,
        "link": "/dictionary/english/zermatt",
        "title": "Zermatt"
    },
    {
        "have": true,
        "link": "/dictionary/english/zero",
        "title": "zero"
    },
    {
        "have": true,
        "link": "/dictionary/english/zero-altitude",
        "title": "zero altitude"
    },
    {
        "have": true,
        "link": "/dictionary/english/zero-balancing",
        "title": "zero balancing"
    },
    {
        "have": true,
        "link": "/dictionary/english/zero-defects",
        "title": "zero defects"
    },
    {
        "have": true,
        "link": "/dictionary/english/zero-gravity",
        "title": "zero gravity"
    },
    {
        "have": true,
        "link": "/dictionary/english/zero-grazing",
        "title": "zero grazing"
    },
    {
        "have": true,
        "link": "/dictionary/english/zero-growth",
        "title": "zero growth"
    },
    {
        "have": true,
        "link": "/dictionary/english/zero-hour",
        "title": "zero hour"
    },
    {
        "have": true,
        "link": "/dictionary/english/zero-in",
        "title": "zero in"
    },
    {
        "have": true,
        "link": "/dictionary/english/zero-in-on",
        "title": "zero in on"
    },
    {
        "have": true,
        "link": "/dictionary/english/zero-option",
        "title": "zero option"
    },
    {
        "have": true,
        "link": "/dictionary/english/zero-point",
        "title": "zero point"
    },
    {
        "have": true,
        "link": "/dictionary/english/zero-population-growth",
        "title": "zero population growth"
    },
    {
        "have": true,
        "link": "/dictionary/english/zero-stage",
        "title": "zero stage"
    },
    {
        "have": true,
        "link": "/dictionary/english/zero-tolerance",
        "title": "zero tolerance"
    },
    {
        "have": true,
        "link": "/dictionary/english/zero-base",
        "title": "zero-base"
    },
    {
        "have": true,
        "link": "/dictionary/english/zero-based",
        "title": "zero-based"
    },
    {
        "have": true,
        "link": "/dictionary/english/zero-coupon",
        "title": "zero-coupon"
    },
    {
        "have": true,
        "link": "/dictionary/english/zero-coupon-bond",
        "title": "zero-coupon bond"
    },
    {
        "have": true,
        "link": "/dictionary/english/zero-coupon-bonds",
        "title": "zero-coupon bonds"
    },
    {
        "have": true,
        "link": "/dictionary/english/zero-emission",
        "title": "zero-emission"
    },
    {
        "have": true,
        "link": "/dictionary/english/zero-g",
        "title": "zero-G"
    },
    {
        "have": true,
        "link": "/dictionary/english/zero-hours-contract",
        "title": "zero-hours contract"
    },
    {
        "have": true,
        "link": "/dictionary/english/zero-rate",
        "title": "zero-rate"
    },
    {
        "have": true,
        "link": "/dictionary/english/zero-rated",
        "title": "zero-rated"
    },
    {
        "have": true,
        "link": "/dictionary/english/zero-rating",
        "title": "zero-rating"
    },
    {
        "have": true,
        "link": "/dictionary/english/zero-sum",
        "title": "zero-sum"
    },
    {
        "have": true,
        "link": "/dictionary/english/zero-sum-game",
        "title": "zero-sum game"
    },
    {
        "have": true,
        "link": "/dictionary/english/zero-zero-option",
        "title": "zero-zero option"
    },
    {
        "have": true,
        "link": "/dictionary/english/zeroth",
        "title": "zeroth"
    },
    {
        "have": true,
        "link": "/dictionary/english/zeroth-law-of-thermodynamics",
        "title": "zeroth law of thermodynamics"
    },
    {
        "have": true,
        "link": "/dictionary/english/zerumbet",
        "title": "zerumbet"
    },
    {
        "have": true,
        "link": "/dictionary/english/zest",
        "title": "zest"
    },
    {
        "have": true,
        "link": "/dictionary/english/zester",
        "title": "zester"
    },
    {
        "have": true,
        "link": "/dictionary/english/zestily",
        "title": "zestily"
    },
    {
        "have": true,
        "link": "/dictionary/english/zeta",
        "title": "zeta"
    },
    {
        "have": true,
        "link": "/dictionary/english/zeta-jones",
        "title": "Zeta-Jones"
    },
    {
        "have": true,
        "link": "/dictionary/english/zetetic",
        "title": "zetetic"
    },
    {
        "have": true,
        "link": "/dictionary/english/zetland",
        "title": "Zetland"
    },
    {
        "have": true,
        "link": "/dictionary/english/zetta",
        "title": "zetta-"
    },
    {
        "have": true,
        "link": "/dictionary/english/zettabyte",
        "title": "zettabyte"
    },
    {
        "have": true,
        "link": "/dictionary/english/zeuglodont",
        "title": "zeuglodont"
    },
    {
        "have": true,
        "link": "/dictionary/english/zeugma",
        "title": "zeugma"
    },
    {
        "have": true,
        "link": "/dictionary/english/zeus",
        "title": "Zeus"
    },
    {
        "have": true,
        "link": "/dictionary/english/zeuxis",
        "title": "Zeuxis"
    },
    {
        "have": true,
        "link": "/dictionary/english/zeuxite",
        "title": "zeuxite"
    },
    {
        "have": true,
        "link": "/dictionary/english/zex",
        "title": "zex"
    },
    {
        "have": true,
        "link": "/dictionary/english/zeze",
        "title": "zeze"
    },
    {
        "have": true,
        "link": "/dictionary/english/zhangjiakou",
        "title": "Zhangjiakou"
    },
    {
        "have": true,
        "link": "/dictionary/english/zhangzhou",
        "title": "Zhangzhou"
    },
    {
        "have": true,
        "link": "/dictionary/english/zhanjiang",
        "title": "Zhanjiang"
    },
    {
        "have": true,
        "link": "/dictionary/english/zhao-ziyang",
        "title": "Zhao Ziyang"
    },
    {
        "have": true,
        "link": "/dictionary/english/zhdanov",
        "title": "Zhdanov"
    },
    {
        "have": true,
        "link": "/dictionary/english/zhejiang",
        "title": "Zhejiang"
    },
    {
        "have": true,
        "link": "/dictionary/english/zhengzhou",
        "title": "Zhengzhou"
    },
    {
        "have": true,
        "link": "/dictionary/english/zhenjiang",
        "title": "Zhenjiang"
    },
    {
        "have": true,
        "link": "/dictionary/english/zhitomir",
        "title": "Zhitomir"
    },
    {
        "have": true,
        "link": "/dictionary/english/zhivkov",
        "title": "Zhivkov"
    },
    {
        "have": true,
        "link": "/dictionary/english/zho",
        "title": "zho"
    },
    {
        "have": true,
        "link": "/dictionary/english/zhomo",
        "title": "zhomo"
    },
    {
        "have": true,
        "link": "/dictionary/english/zhoosh",
        "title": "zhoosh"
    },
    {
        "have": true,
        "link": "/dictionary/english/zhou",
        "title": "Zhou"
    },
    {
        "have": true,
        "link": "/dictionary/english/zhou-en-lai",
        "title": "Zhou En Lai"
    },
    {
        "have": true,
        "link": "/dictionary/english/zhu",
        "title": "Zhu"
    },
    {
        "have": true,
        "link": "/dictionary/english/zhu-de",
        "title": "Zhu De"
    },
    {
        "have": true,
        "link": "/dictionary/english/zhu-jiang",
        "title": "Zhu Jiang"
    },
    {
        "have": true,
        "link": "/dictionary/english/zhuangzi",
        "title": "Zhuangzi"
    },
    {
        "have": true,
        "link": "/dictionary/english/zhukov",
        "title": "Zhukov"
    },
    {
        "have": true,
        "link": "/dictionary/english/zhuzhou",
        "title": "Zhuzhou"
    },
    {
        "have": true,
        "link": "/dictionary/english/zi-xi",
        "title": "Zi Xi"
    },
    {
        "have": true,
        "link": "/dictionary/english/zia-ul-haq",
        "title": "Zia ul Haq"
    },
    {
        "have": true,
        "link": "/dictionary/english/zibeline",
        "title": "zibeline"
    },
    {
        "have": true,
        "link": "/dictionary/english/zibet",
        "title": "zibet"
    },
    {
        "have": true,
        "link": "/dictionary/english/zibo",
        "title": "Zibo"
    },
    {
        "have": true,
        "link": "/dictionary/english/zidane",
        "title": "Zidane"
    },
    {
        "have": true,
        "link": "/dictionary/english/zidovudine",
        "title": "zidovudine"
    },
    {
        "have": true,
        "link": "/dictionary/english/ziegfeld",
        "title": "Ziegfeld"
    },
    {
        "have": true,
        "link": "/dictionary/english/ziegler",
        "title": "Ziegler"
    },
    {
        "have": true,
        "link": "/dictionary/english/ziegler-catalyst",
        "title": "Ziegler catalyst"
    },
    {
        "have": true,
        "link": "/dictionary/english/zif",
        "title": "ZIF"
    },
    {
        "have": true,
        "link": "/dictionary/english/ziff",
        "title": "ziff"
    },
    {
        "have": true,
        "link": "/dictionary/english/ziffius",
        "title": "ziffius"
    },
    {
        "have": true,
        "link": "/dictionary/english/zift",
        "title": "ZIFT"
    },
    {
        "have": true,
        "link": "/dictionary/english/zig",
        "title": "zig"
    },
    {
        "have": true,
        "link": "/dictionary/english/zigan",
        "title": "zigan"
    },
    {
        "have": true,
        "link": "/dictionary/english/ziganka",
        "title": "ziganka"
    },
    {
        "have": true,
        "link": "/dictionary/english/ziggurat",
        "title": "ziggurat"
    },
    {
        "have": true,
        "link": "/dictionary/english/zigong",
        "title": "Zigong"
    },
    {
        "have": true,
        "link": "/dictionary/english/zigzag",
        "title": "zigzag"
    },
    {
        "have": true,
        "link": "/dictionary/english/zigzagged",
        "title": "zigzagged"
    },
    {
        "have": true,
        "link": "/dictionary/english/zigzaggery",
        "title": "zigzaggery"
    },
    {
        "have": true,
        "link": "/dictionary/english/zigzagging",
        "title": "zigzagging"
    },
    {
        "have": true,
        "link": "/dictionary/english/zigzaggy",
        "title": "zigzaggy"
    },
    {
        "have": true,
        "link": "/dictionary/english/zila",
        "title": "zila"
    },
    {
        "have": true,
        "link": "/dictionary/english/zila-parishad",
        "title": "zila parishad"
    },
    {
        "have": true,
        "link": "/dictionary/english/zilch",
        "title": "zilch"
    },
    {
        "have": true,
        "link": "/dictionary/english/zill",
        "title": "zill"
    },
    {
        "have": true,
        "link": "/dictionary/english/zillah",
        "title": "zillah"
    },
    {
        "have": true,
        "link": "/dictionary/english/zille",
        "title": "Zille"
    },
    {
        "have": true,
        "link": "/dictionary/english/zillion",
        "title": "zillion"
    },
    {
        "have": true,
        "link": "/dictionary/english/zillionaire",
        "title": "zillionaire"
    },
    {
        "have": true,
        "link": "/dictionary/english/zillionth",
        "title": "zillionth"
    },
    {
        "have": true,
        "link": "/dictionary/english/zilpah",
        "title": "Zilpah"
    },
    {
        "have": true,
        "link": "/dictionary/english/zimb",
        "title": "Zimb"
    },
    {
        "have": true,
        "link": "/dictionary/english/zimbabwe",
        "title": "Zimbabwe"
    },
    {
        "have": true,
        "link": "/dictionary/english/zimbabwean",
        "title": "Zimbabwean"
    },
    {
        "have": true,
        "link": "/dictionary/english/zimbi",
        "title": "zimbi"
    },
    {
        "have": true,
        "link": "/dictionary/english/zimmer",
        "title": "Zimmer"
    },
    {
        "have": true,
        "link": "/dictionary/english/zimmer-frame",
        "title": "Zimmer frame"
    },
    {
        "have": true,
        "link": "/dictionary/english/zimocca",
        "title": "zimocca"
    },
    {
        "have": true,
        "link": "/dictionary/english/zinc",
        "title": "zinc"
    },
    {
        "have": true,
        "link": "/dictionary/english/zinc-blende",
        "title": "zinc blende"
    },
    {
        "have": true,
        "link": "/dictionary/english/zinc-chloride",
        "title": "zinc chloride"
    },
    {
        "have": true,
        "link": "/dictionary/english/zinc-dust",
        "title": "zinc dust"
    },
    {
        "have": true,
        "link": "/dictionary/english/zinc-ointment",
        "title": "zinc ointment"
    },
    {
        "have": true,
        "link": "/dictionary/english/zinc-oxide",
        "title": "zinc oxide"
    },
    {
        "have": true,
        "link": "/dictionary/english/zinc-sulfate",
        "title": "zinc sulfate"
    },
    {
        "have": true,
        "link": "/dictionary/english/zinc-sulfide",
        "title": "zinc sulfide"
    },
    {
        "have": true,
        "link": "/dictionary/english/zinc-sulphate",
        "title": "zinc sulphate"
    },
    {
        "have": true,
        "link": "/dictionary/english/zinc-vitriol",
        "title": "zinc vitriol"
    },
    {
        "have": true,
        "link": "/dictionary/english/zinc-white",
        "title": "zinc white"
    },
    {
        "have": true,
        "link": "/dictionary/english/zinc-plating",
        "title": "zinc-plating"
    },
    {
        "have": true,
        "link": "/dictionary/english/zincate",
        "title": "zincate"
    },
    {
        "have": true,
        "link": "/dictionary/english/zinciferous",
        "title": "zinciferous"
    },
    {
        "have": true,
        "link": "/dictionary/english/zincification",
        "title": "zincification"
    },
    {
        "have": true,
        "link": "/dictionary/english/zincify",
        "title": "zincify"
    },
    {
        "have": true,
        "link": "/dictionary/english/zincite",
        "title": "zincite"
    },
    {
        "have": true,
        "link": "/dictionary/english/zinckenite",
        "title": "zinckenite"
    },
    {
        "have": true,
        "link": "/dictionary/english/zinckification",
        "title": "zinckification"
    },
    {
        "have": true,
        "link": "/dictionary/english/zinco",
        "title": "zinco"
    },
    {
        "have": true,
        "link": "/dictionary/english/zincode",
        "title": "zincode"
    },
    {
        "have": true,
        "link": "/dictionary/english/zincograph",
        "title": "zincograph"
    },
    {
        "have": true,
        "link": "/dictionary/english/zincography",
        "title": "zincography"
    },
    {
        "have": true,
        "link": "/dictionary/english/zincolyses",
        "title": "zincolyses"
    },
    {
        "have": true,
        "link": "/dictionary/english/zincolysis",
        "title": "zincolysis"
    },
    {
        "have": true,
        "link": "/dictionary/english/zindabad",
        "title": "zindabad"
    },
    {
        "have": true,
        "link": "/dictionary/english/zine",
        "title": "zine"
    },
    {
        "have": true,
        "link": "/dictionary/english/zineb",
        "title": "zineb"
    },
    {
        "have": true,
        "link": "/dictionary/english/zinfandel",
        "title": "Zinfandel"
    },
    {
        "have": true,
        "link": "/dictionary/english/zing",
        "title": "zing"
    },
    {
        "have": true,
        "link": "/dictionary/english/zingano",
        "title": "zingano"
    },
    {
        "have": true,
        "link": "/dictionary/english/zingara",
        "title": "zingara"
    },
    {
        "have": true,
        "link": "/dictionary/english/zingare",
        "title": "zingare"
    },
    {
        "have": true,
        "link": "/dictionary/english/zingari",
        "title": "zingari"
    },
    {
        "have": true,
        "link": "/dictionary/english/zingaro",
        "title": "zingaro"
    },
    {
        "have": true,
        "link": "/dictionary/english/zingel",
        "title": "zingel"
    },
    {
        "have": true,
        "link": "/dictionary/english/zinger",
        "title": "zinger"
    },
    {
        "have": true,
        "link": "/dictionary/english/zingiber",
        "title": "zingiber"
    },
    {
        "have": true,
        "link": "/dictionary/english/zingiberaceous",
        "title": "zingiberaceous"
    },
    {
        "have": true,
        "link": "/dictionary/english/zingier",
        "title": "zingier"
    },
    {
        "have": true,
        "link": "/dictionary/english/zingiest",
        "title": "zingiest"
    },
    {
        "have": true,
        "link": "/dictionary/english/zingy",
        "title": "zingy"
    },
    {
        "have": true,
        "link": "/dictionary/english/zinjanthropi",
        "title": "zinjanthropi"
    },
    {
        "have": true,
        "link": "/dictionary/english/zinjanthropus",
        "title": "zinjanthropus"
    },
    {
        "have": true,
        "link": "/dictionary/english/zinke",
        "title": "zinke"
    },
    {
        "have": true,
        "link": "/dictionary/english/zinkenite",
        "title": "zinkenite"
    },
    {
        "have": true,
        "link": "/dictionary/english/zinkiferous",
        "title": "zinkiferous"
    },
    {
        "have": true,
        "link": "/dictionary/english/zinkification",
        "title": "zinkification"
    },
    {
        "have": true,
        "link": "/dictionary/english/zinkify",
        "title": "zinkify"
    },
    {
        "have": true,
        "link": "/dictionary/english/zinky",
        "title": "zinky"
    },
    {
        "have": true,
        "link": "/dictionary/english/zinnia",
        "title": "zinnia"
    },
    {
        "have": true,
        "link": "/dictionary/english/zinoviev",
        "title": "Zinoviev"
    },
    {
        "have": true,
        "link": "/dictionary/english/zinovievsk",
        "title": "Zinovievsk"
    },
    {
        "have": true,
        "link": "/dictionary/english/zinsser",
        "title": "Zinsser"
    },
    {
        "have": true,
        "link": "/dictionary/english/zinzendorf",
        "title": "Zinzendorf"
    },
    {
        "have": true,
        "link": "/dictionary/english/zinziberaceous",
        "title": "zinziberaceous"
    },
    {
        "have": true,
        "link": "/dictionary/english/zion",
        "title": "Zion"
    },
    {
        "have": true,
        "link": "/dictionary/english/zionism",
        "title": "Zionism"
    },
    {
        "have": true,
        "link": "/dictionary/english/zionist",
        "title": "Zionist"
    },
    {
        "have": true,
        "link": "/dictionary/english/zip",
        "title": "zip"
    },
    {
        "have": true,
        "link": "/dictionary/english/zip-code",
        "title": "zip code"
    },
    {
        "have": true,
        "link": "/dictionary/english/zip-disk",
        "title": "zip disk"
    },
    {
        "have": true,
        "link": "/dictionary/english/zip-drive",
        "title": "zip drive"
    },
    {
        "have": true,
        "link": "/dictionary/english/zip-fastener",
        "title": "zip fastener"
    },
    {
        "have": true,
        "link": "/dictionary/english/zip-fastening",
        "title": "zip fastening"
    },
    {
        "have": true,
        "link": "/dictionary/english/zip-file",
        "title": "zip file"
    },
    {
        "have": true,
        "link": "/dictionary/english/zip-gun",
        "title": "zip gun"
    },
    {
        "have": true,
        "link": "/dictionary/english/zip-line",
        "title": "zip line"
    },
    {
        "have": true,
        "link": "/dictionary/english/zip-up",
        "title": "zip up"
    },
    {
        "have": true,
        "link": "/dictionary/english/zip-lock",
        "title": "zip-lock"
    },
    {
        "have": true,
        "link": "/dictionary/english/zip-on",
        "title": "zip-on"
    },
    {
        "have": true,
        "link": "/dictionary/english/zipangu",
        "title": "Zipangu"
    },
    {
        "have": true,
        "link": "/dictionary/english/zipless",
        "title": "zipless"
    },
    {
        "have": true,
        "link": "/dictionary/english/ziploc",
        "title": "Ziploc"
    },
    {
        "have": true,
        "link": "/dictionary/english/ziplock",
        "title": "ziplock"
    },
    {
        "have": true,
        "link": "/dictionary/english/zipped",
        "title": "zipped"
    },
    {
        "have": true,
        "link": "/dictionary/english/zipper",
        "title": "zipper"
    },
    {
        "have": true,
        "link": "/dictionary/english/zippered",
        "title": "zippered"
    },
    {
        "have": true,
        "link": "/dictionary/english/zippier",
        "title": "zippier"
    },
    {
        "have": true,
        "link": "/dictionary/english/zippiest",
        "title": "zippiest"
    },
    {
        "have": true,
        "link": "/dictionary/english/zipping",
        "title": "zipping"
    },
    {
        "have": true,
        "link": "/dictionary/english/zippo",
        "title": "zippo"
    },
    {
        "have": true,
        "link": "/dictionary/english/zippy",
        "title": "zippy"
    },
    {
        "have": true,
        "link": "/dictionary/english/ziptop",
        "title": "ziptop"
    },
    {
        "have": true,
        "link": "/dictionary/english/ziram",
        "title": "ziram"
    },
    {
        "have": true,
        "link": "/dictionary/english/zircalloy",
        "title": "zircalloy"
    },
    {
        "have": true,
        "link": "/dictionary/english/zircaloy",
        "title": "Zircaloy"
    },
    {
        "have": true,
        "link": "/dictionary/english/zircon",
        "title": "zircon"
    },
    {
        "have": true,
        "link": "/dictionary/english/zirconia",
        "title": "zirconia"
    },
    {
        "have": true,
        "link": "/dictionary/english/zirconium",
        "title": "zirconium"
    },
    {
        "have": true,
        "link": "/dictionary/english/zirconium-oxide",
        "title": "zirconium oxide"
    },
    {
        "have": true,
        "link": "/dictionary/english/ziska",
        "title": "Ziska"
    },
    {
        "have": true,
        "link": "/dictionary/english/zit",
        "title": "zit"
    },
    {
        "have": true,
        "link": "/dictionary/english/zither",
        "title": "zither"
    },
    {
        "have": true,
        "link": "/dictionary/english/ziti",
        "title": "ziti"
    },
    {
        "have": true,
        "link": "/dictionary/english/zizania",
        "title": "zizania"
    },
    {
        "have": true,
        "link": "/dictionary/english/zizel",
        "title": "zizel"
    },
    {
        "have": true,
        "link": "/dictionary/english/zizit",
        "title": "zizit"
    },
    {
        "have": true,
        "link": "/dictionary/english/zizith",
        "title": "zizith"
    },
    {
        "have": true,
        "link": "/dictionary/english/zizka",
        "title": "Žižka"
    },
    {
        "have": true,
        "link": "/dictionary/english/zizyphus",
        "title": "zizyphus"
    },
    {
        "have": true,
        "link": "/dictionary/english/zizz",
        "title": "zizz"
    },
    {
        "have": true,
        "link": "/dictionary/english/zizzle",
        "title": "zizzle"
    },
    {
        "have": true,
        "link": "/dictionary/english/zl",
        "title": "Zl"
    },
    {
        "have": true,
        "link": "/dictionary/english/zlatoust",
        "title": "Zlatoust"
    },
    {
        "have": true,
        "link": "/dictionary/english/zloty",
        "title": "zloty"
    },
    {
        "have": true,
        "link": "/dictionary/english/zm",
        "title": "zm"
    },
    {
        "have": true,
        "link": "/dictionary/english/zn",
        "title": "Zn"
    },
    {
        "have": true,
        "link": "/dictionary/english/zo_1",
        "title": "zo"
    },
    {
        "have": true,
        "link": "/dictionary/english/zo_2",
        "title": "zo-"
    },
    {
        "have": true,
        "link": "/dictionary/english/zoa_1",
        "title": "zoa"
    },
    {
        "have": true,
        "link": "/dictionary/english/zoa_2",
        "title": "-zoa"
    },
    {
        "have": true,
        "link": "/dictionary/english/zoaea",
        "title": "zoaea"
    },
    {
        "have": true,
        "link": "/dictionary/english/zoaeae",
        "title": "zoaeae"
    },
    {
        "have": true,
        "link": "/dictionary/english/zoan",
        "title": "Zoan"
    },
    {
        "have": true,
        "link": "/dictionary/english/zoantharian",
        "title": "zoantharian"
    },
    {
        "have": true,
        "link": "/dictionary/english/zoanthropic",
        "title": "zoanthropic"
    },
    {
        "have": true,
        "link": "/dictionary/english/zoanthropy",
        "title": "zoanthropy"
    },
    {
        "have": true,
        "link": "/dictionary/english/zoarial",
        "title": "zoarial"
    },
    {
        "have": true,
        "link": "/dictionary/english/zoarium",
        "title": "zoarium"
    },
    {
        "have": true,
        "link": "/dictionary/english/zocalo",
        "title": "zocalo"
    },
    {
        "have": true,
        "link": "/dictionary/english/zocco",
        "title": "zocco"
    },
    {
        "have": true,
        "link": "/dictionary/english/zodiac",
        "title": "zodiac"
    },
    {
        "have": true,
        "link": "/dictionary/english/zodiacal-constellation",
        "title": "zodiacal constellation"
    },
    {
        "have": true,
        "link": "/dictionary/english/zodiacal-light",
        "title": "zodiacal light"
    },
    {
        "have": true,
        "link": "/dictionary/english/zoe",
        "title": "Zoe"
    },
    {
        "have": true,
        "link": "/dictionary/english/zoea",
        "title": "zoea"
    },
    {
        "have": true,
        "link": "/dictionary/english/zoeae",
        "title": "zoeae"
    },
    {
        "have": true,
        "link": "/dictionary/english/zoeal",
        "title": "zoeal"
    },
    {
        "have": true,
        "link": "/dictionary/english/zoeform",
        "title": "zoeform"
    },
    {
        "have": true,
        "link": "/dictionary/english/zoetic",
        "title": "zoetic"
    },
    {
        "have": true,
        "link": "/dictionary/english/zoetrope",
        "title": "zoetrope"
    },
    {
        "have": true,
        "link": "/dictionary/english/zoetropic",
        "title": "zoetropic"
    },
    {
        "have": true,
        "link": "/dictionary/english/zoffany",
        "title": "Zoffany"
    },
    {
        "have": true,
        "link": "/dictionary/english/zoftig",
        "title": "zoftig"
    },
    {
        "have": true,
        "link": "/dictionary/english/zog-i",
        "title": "Zog I"
    },
    {
        "have": true,
        "link": "/dictionary/english/zohar",
        "title": "Zohar"
    },
    {
        "have": true,
        "link": "/dictionary/english/zoiatria",
        "title": "zoiatria"
    },
    {
        "have": true,
        "link": "/dictionary/english/zoiatrics",
        "title": "zoiatrics"
    },
    {
        "have": true,
        "link": "/dictionary/english/zoic_1",
        "title": "zoic"
    },
    {
        "have": true,
        "link": "/dictionary/english/zoic_2",
        "title": "-zoic"
    },
    {
        "have": true,
        "link": "/dictionary/english/zoisite",
        "title": "zoisite"
    },
    {
        "have": true,
        "link": "/dictionary/english/zoism",
        "title": "zoism"
    },
    {
        "have": true,
        "link": "/dictionary/english/zoist",
        "title": "zoist"
    },
    {
        "have": true,
        "link": "/dictionary/english/zol",
        "title": "zol"
    },
    {
        "have": true,
        "link": "/dictionary/english/zola",
        "title": "Zola"
    },
    {
        "have": true,
        "link": "/dictionary/english/zola-budd",
        "title": "Zola Budd"
    },
    {
        "have": true,
        "link": "/dictionary/english/zollverein",
        "title": "Zollverein"
    },
    {
        "have": true,
        "link": "/dictionary/english/zolpidem",
        "title": "zolpidem"
    },
    {
        "have": true,
        "link": "/dictionary/english/zomba",
        "title": "Zomba"
    },
    {
        "have": true,
        "link": "/dictionary/english/zombie",
        "title": "zombie"
    },
    {
        "have": true,
        "link": "/dictionary/english/zombielike",
        "title": "zombielike"
    },
    {
        "have": true,
        "link": "/dictionary/english/zombification",
        "title": "zombification"
    },
    {
        "have": true,
        "link": "/dictionary/english/zombify",
        "title": "zombify"
    },
    {
        "have": true,
        "link": "/dictionary/english/zomboruk",
        "title": "zomboruk"
    },
    {
        "have": true,
        "link": "/dictionary/english/zona",
        "title": "zona"
    },
    {
        "have": true,
        "link": "/dictionary/english/zona-pellucida",
        "title": "zona pellucida"
    },
    {
        "have": true,
        "link": "/dictionary/english/zonal",
        "title": "zonal"
    },
    {
        "have": true,
        "link": "/dictionary/english/zonal-geranium",
        "title": "zonal geranium"
    },
    {
        "have": true,
        "link": "/dictionary/english/zonal-pelargonium",
        "title": "zonal pelargonium"
    },
    {
        "have": true,
        "link": "/dictionary/english/zonal-soil",
        "title": "zonal soil"
    },
    {
        "have": true,
        "link": "/dictionary/english/zonary",
        "title": "zonary"
    },
    {
        "have": true,
        "link": "/dictionary/english/zonate",
        "title": "zonate"
    },
    {
        "have": true,
        "link": "/dictionary/english/zonation",
        "title": "zonation"
    },
    {
        "have": true,
        "link": "/dictionary/english/zond",
        "title": "Zond"
    },
    {
        "have": true,
        "link": "/dictionary/english/zond-3",
        "title": "Zond 3"
    },
    {
        "have": true,
        "link": "/dictionary/english/zonda",
        "title": "zonda"
    },
    {
        "have": true,
        "link": "/dictionary/english/zone",
        "title": "zone"
    },
    {
        "have": true,
        "link": "/dictionary/english/zone-defence",
        "title": "zone defence"
    },
    {
        "have": true,
        "link": "/dictionary/english/zone-fossil",
        "title": "zone fossil"
    },
    {
        "have": true,
        "link": "/dictionary/english/zone-of-saturation",
        "title": "zone of saturation"
    },
    {
        "have": true,
        "link": "/dictionary/english/zone-out",
        "title": "zone out"
    },
    {
        "have": true,
        "link": "/dictionary/english/zone-refining",
        "title": "zone refining"
    },
    {
        "have": true,
        "link": "/dictionary/english/zone-therapy",
        "title": "zone therapy"
    },
    {
        "have": true,
        "link": "/dictionary/english/zoneless",
        "title": "zoneless"
    },
    {
        "have": true,
        "link": "/dictionary/english/zoner",
        "title": "zoner"
    },
    {
        "have": true,
        "link": "/dictionary/english/zonetime",
        "title": "zonetime"
    },
    {
        "have": true,
        "link": "/dictionary/english/zonk",
        "title": "zonk"
    },
    {
        "have": true,
        "link": "/dictionary/english/zonk-out",
        "title": "zonk out"
    },
    {
        "have": true,
        "link": "/dictionary/english/zonked",
        "title": "zonked"
    },
    {
        "have": true,
        "link": "/dictionary/english/zonoid",
        "title": "zonoid"
    },
    {
        "have": true,
        "link": "/dictionary/english/zonula",
        "title": "zonula"
    },
    {
        "have": true,
        "link": "/dictionary/english/zonule",
        "title": "zonule"
    },
    {
        "have": true,
        "link": "/dictionary/english/zonulet",
        "title": "zonulet"
    },
    {
        "have": true,
        "link": "/dictionary/english/zonure",
        "title": "zonure"
    },
    {
        "have": true,
        "link": "/dictionary/english/zoo_1",
        "title": "zoo"
    },
    {
        "have": true,
        "link": "/dictionary/english/zoo-doo",
        "title": "zoo doo"
    },
    {
        "have": true,
        "link": "/dictionary/english/zoo-keeper",
        "title": "zoo keeper"
    },
    {
        "have": true,
        "link": "/dictionary/english/zoo_2",
        "title": "zoo-"
    },
    {
        "have": true,
        "link": "/dictionary/english/zoobiotic",
        "title": "zoobiotic"
    },
    {
        "have": true,
        "link": "/dictionary/english/zooblast",
        "title": "zooblast"
    },
    {
        "have": true,
        "link": "/dictionary/english/zoocephalic",
        "title": "zoocephalic"
    },
    {
        "have": true,
        "link": "/dictionary/english/zoochemistry",
        "title": "zoochemistry"
    },
    {
        "have": true,
        "link": "/dictionary/english/zoochorous",
        "title": "zoochorous"
    },
    {
        "have": true,
        "link": "/dictionary/english/zoochory",
        "title": "zoochory"
    },
    {
        "have": true,
        "link": "/dictionary/english/zooculture",
        "title": "zooculture"
    },
    {
        "have": true,
        "link": "/dictionary/english/zoocytium",
        "title": "zoocytium"
    },
    {
        "have": true,
        "link": "/dictionary/english/zoodendria",
        "title": "zoodendria"
    },
    {
        "have": true,
        "link": "/dictionary/english/zoodendrium",
        "title": "zoodendrium"
    },
    {
        "have": true,
        "link": "/dictionary/english/zooeal",
        "title": "zooeal"
    },
    {
        "have": true,
        "link": "/dictionary/english/zooecium",
        "title": "zooecium"
    },
    {
        "have": true,
        "link": "/dictionary/english/zooey",
        "title": "zooey"
    },
    {
        "have": true,
        "link": "/dictionary/english/zooflagellate",
        "title": "zooflagellate"
    },
    {
        "have": true,
        "link": "/dictionary/english/zoogamete",
        "title": "zoogamete"
    },
    {
        "have": true,
        "link": "/dictionary/english/zoogamous",
        "title": "zoogamous"
    },
    {
        "have": true,
        "link": "/dictionary/english/zoogamy",
        "title": "zoogamy"
    },
    {
        "have": true,
        "link": "/dictionary/english/zoogenic",
        "title": "zoogenic"
    },
    {
        "have": true,
        "link": "/dictionary/english/zoogeny",
        "title": "zoogeny"
    },
    {
        "have": true,
        "link": "/dictionary/english/zoogeography",
        "title": "zoogeography"
    },
    {
        "have": true,
        "link": "/dictionary/english/zoogleal",
        "title": "zoogleal"
    },
    {
        "have": true,
        "link": "/dictionary/english/zoogloea",
        "title": "zoogloea"
    },
    {
        "have": true,
        "link": "/dictionary/english/zoogloeic",
        "title": "zoogloeic"
    },
    {
        "have": true,
        "link": "/dictionary/english/zoogloeoid",
        "title": "zoogloeoid"
    },
    {
        "have": true,
        "link": "/dictionary/english/zoogonidia",
        "title": "zoogonidia"
    },
    {
        "have": true,
        "link": "/dictionary/english/zoogonidium",
        "title": "zoogonidium"
    },
    {
        "have": true,
        "link": "/dictionary/english/zoogonous",
        "title": "zoogonous"
    },
    {
        "have": true,
        "link": "/dictionary/english/zoograft",
        "title": "zoograft"
    },
    {
        "have": true,
        "link": "/dictionary/english/zoografting",
        "title": "zoografting"
    },
    {
        "have": true,
        "link": "/dictionary/english/zoographist",
        "title": "zoographist"
    },
    {
        "have": true,
        "link": "/dictionary/english/zoography",
        "title": "zoography"
    },
    {
        "have": true,
        "link": "/dictionary/english/zooid",
        "title": "zooid"
    },
    {
        "have": true,
        "link": "/dictionary/english/zookeeper",
        "title": "zookeeper"
    },
    {
        "have": true,
        "link": "/dictionary/english/zool",
        "title": "zool."
    },
    {
        "have": true,
        "link": "/dictionary/english/zoolatry",
        "title": "zoolatry"
    },
    {
        "have": true,
        "link": "/dictionary/english/zoolite",
        "title": "zoolite"
    },
    {
        "have": true,
        "link": "/dictionary/english/zoolith",
        "title": "zoolith"
    },
    {
        "have": true,
        "link": "/dictionary/english/zoolithic",
        "title": "zoolithic"
    },
    {
        "have": true,
        "link": "/dictionary/english/zoolitic",
        "title": "zoolitic"
    },
    {
        "have": true,
        "link": "/dictionary/english/zoologic",
        "title": "zoologic"
    },
    {
        "have": true,
        "link": "/dictionary/english/zoological",
        "title": "zoological"
    },
    {
        "have": true,
        "link": "/dictionary/english/zoological-garden",
        "title": "zoological garden"
    },
    {
        "have": true,
        "link": "/dictionary/english/zoological-gardens",
        "title": "zoological gardens"
    },
    {
        "have": true,
        "link": "/dictionary/english/zoologically",
        "title": "zoologically"
    },
    {
        "have": true,
        "link": "/dictionary/english/zoologies",
        "title": "zoologies"
    },
    {
        "have": true,
        "link": "/dictionary/english/zoologist",
        "title": "zoologist"
    },
    {
        "have": true,
        "link": "/dictionary/english/zoology",
        "title": "zoology"
    },
    {
        "have": true,
        "link": "/dictionary/english/zoom",
        "title": "zoom"
    },
    {
        "have": true,
        "link": "/dictionary/english/zoom-in",
        "title": "zoom in"
    },
    {
        "have": true,
        "link": "/dictionary/english/zoom-lens",
        "title": "zoom lens"
    },
    {
        "have": true,
        "link": "/dictionary/english/zoom-off",
        "title": "zoom off"
    },
    {
        "have": true,
        "link": "/dictionary/english/zoom-out",
        "title": "zoom out"
    },
    {
        "have": true,
        "link": "/dictionary/english/zoomagnetic",
        "title": "zoomagnetic"
    },
    {
        "have": true,
        "link": "/dictionary/english/zoomagnetism",
        "title": "zoomagnetism"
    },
    {
        "have": true,
        "link": "/dictionary/english/zoomancy",
        "title": "zoomancy"
    },
    {
        "have": true,
        "link": "/dictionary/english/zoomania",
        "title": "zoomania"
    },
    {
        "have": true,
        "link": "/dictionary/english/zoomantic",
        "title": "zoomantic"
    },
    {
        "have": true,
        "link": "/dictionary/english/zoometry",
        "title": "zoometry"
    },
    {
        "have": true,
        "link": "/dictionary/english/zoomorph",
        "title": "zoomorph"
    },
    {
        "have": true,
        "link": "/dictionary/english/zoomorphic",
        "title": "zoomorphic"
    },
    {
        "have": true,
        "link": "/dictionary/english/zoomorphism",
        "title": "zoomorphism"
    },
    {
        "have": true,
        "link": "/dictionary/english/zoomorphy",
        "title": "zoomorphy"
    },
    {
        "have": true,
        "link": "/dictionary/english/zoon_1",
        "title": "zoon"
    },
    {
        "have": true,
        "link": "/dictionary/english/zoon_2",
        "title": "-zoon"
    },
    {
        "have": true,
        "link": "/dictionary/english/zoonic",
        "title": "zoonic"
    },
    {
        "have": true,
        "link": "/dictionary/english/zoonite",
        "title": "zoonite"
    },
    {
        "have": true,
        "link": "/dictionary/english/zoonitic",
        "title": "zoonitic"
    },
    {
        "have": true,
        "link": "/dictionary/english/zoonomic",
        "title": "zoonomic"
    },
    {
        "have": true,
        "link": "/dictionary/english/zoonomist",
        "title": "zoonomist"
    },
    {
        "have": true,
        "link": "/dictionary/english/zoonomy",
        "title": "zoonomy"
    },
    {
        "have": true,
        "link": "/dictionary/english/zoonoses",
        "title": "zoonoses"
    },
    {
        "have": true,
        "link": "/dictionary/english/zoonosis",
        "title": "zoonosis"
    },
    {
        "have": true,
        "link": "/dictionary/english/zoonotic",
        "title": "zoonotic"
    },
    {
        "have": true,
        "link": "/dictionary/english/zooparasite",
        "title": "zooparasite"
    },
    {
        "have": true,
        "link": "/dictionary/english/zoopathology",
        "title": "zoopathology"
    },
    {
        "have": true,
        "link": "/dictionary/english/zoopathy",
        "title": "zoopathy"
    },
    {
        "have": true,
        "link": "/dictionary/english/zooperal",
        "title": "zooperal"
    },
    {
        "have": true,
        "link": "/dictionary/english/zooperist",
        "title": "zooperist"
    },
    {
        "have": true,
        "link": "/dictionary/english/zoopery",
        "title": "zoopery"
    },
    {
        "have": true,
        "link": "/dictionary/english/zoophagan",
        "title": "zoophagan"
    },
    {
        "have": true,
        "link": "/dictionary/english/zoophagous",
        "title": "zoophagous"
    },
    {
        "have": true,
        "link": "/dictionary/english/zoophagy",
        "title": "zoophagy"
    },
    {
        "have": true,
        "link": "/dictionary/english/zoophile",
        "title": "zoophile"
    },
    {
        "have": true,
        "link": "/dictionary/english/zoophilia",
        "title": "zoophilia"
    },
    {
        "have": true,
        "link": "/dictionary/english/zoophilic",
        "title": "zoophilic"
    },
    {
        "have": true,
        "link": "/dictionary/english/zoophilism",
        "title": "zoophilism"
    },
    {
        "have": true,
        "link": "/dictionary/english/zoophilist",
        "title": "zoophilist"
    },
    {
        "have": true,
        "link": "/dictionary/english/zoophilous",
        "title": "zoophilous"
    },
    {
        "have": true,
        "link": "/dictionary/english/zoophobe",
        "title": "zoophobe"
    },
    {
        "have": true,
        "link": "/dictionary/english/zoophobia",
        "title": "zoophobia"
    },
    {
        "have": true,
        "link": "/dictionary/english/zoophoric",
        "title": "zoophoric"
    },
    {
        "have": true,
        "link": "/dictionary/english/zoophorus",
        "title": "zoophorus"
    },
    {
        "have": true,
        "link": "/dictionary/english/zoophysiologist",
        "title": "zoophysiologist"
    },
    {
        "have": true,
        "link": "/dictionary/english/zoophysiology",
        "title": "zoophysiology"
    },
    {
        "have": true,
        "link": "/dictionary/english/zoophyte",
        "title": "zoophyte"
    },
    {
        "have": true,
        "link": "/dictionary/english/zoophytoid",
        "title": "zoophytoid"
    },
    {
        "have": true,
        "link": "/dictionary/english/zoophytological",
        "title": "zoophytological"
    },
    {
        "have": true,
        "link": "/dictionary/english/zoophytologist",
        "title": "zoophytologist"
    },
    {
        "have": true,
        "link": "/dictionary/english/zoophytology",
        "title": "zoophytology"
    },
    {
        "have": true,
        "link": "/dictionary/english/zooplankter",
        "title": "zooplankter"
    },
    {
        "have": true,
        "link": "/dictionary/english/zooplankton",
        "title": "zooplankton"
    },
    {
        "have": true,
        "link": "/dictionary/english/zooplanktonic",
        "title": "zooplanktonic"
    },
    {
        "have": true,
        "link": "/dictionary/english/zooplasty",
        "title": "zooplasty"
    },
    {
        "have": true,
        "link": "/dictionary/english/zoopsychology",
        "title": "zoopsychology"
    },
    {
        "have": true,
        "link": "/dictionary/english/zooscopic",
        "title": "zooscopic"
    },
    {
        "have": true,
        "link": "/dictionary/english/zooscopy",
        "title": "zooscopy"
    },
    {
        "have": true,
        "link": "/dictionary/english/zoosperm",
        "title": "zoosperm"
    },
    {
        "have": true,
        "link": "/dictionary/english/zoospermia",
        "title": "zoospermia"
    },
    {
        "have": true,
        "link": "/dictionary/english/zoospermium",
        "title": "zoospermium"
    },
    {
        "have": true,
        "link": "/dictionary/english/zoosporangia",
        "title": "zoosporangia"
    },
    {
        "have": true,
        "link": "/dictionary/english/zoosporangium",
        "title": "zoosporangium"
    },
    {
        "have": true,
        "link": "/dictionary/english/zoospore",
        "title": "zoospore"
    },
    {
        "have": true,
        "link": "/dictionary/english/zoosterol",
        "title": "zoosterol"
    },
    {
        "have": true,
        "link": "/dictionary/english/zoot",
        "title": "zoot"
    },
    {
        "have": true,
        "link": "/dictionary/english/zoot-suit",
        "title": "zoot suit"
    },
    {
        "have": true,
        "link": "/dictionary/english/zootaxy",
        "title": "zootaxy"
    },
    {
        "have": true,
        "link": "/dictionary/english/zootechnical",
        "title": "zootechnical"
    },
    {
        "have": true,
        "link": "/dictionary/english/zootechnics",
        "title": "zootechnics"
    },
    {
        "have": true,
        "link": "/dictionary/english/zootechny",
        "title": "zootechny"
    },
    {
        "have": true,
        "link": "/dictionary/english/zoothapses",
        "title": "zoothapses"
    },
    {
        "have": true,
        "link": "/dictionary/english/zoothapsis",
        "title": "zoothapsis"
    },
    {
        "have": true,
        "link": "/dictionary/english/zoothecia",
        "title": "zoothecia"
    },
    {
        "have": true,
        "link": "/dictionary/english/zoothecial",
        "title": "zoothecial"
    },
    {
        "have": true,
        "link": "/dictionary/english/zoothecium",
        "title": "zoothecium"
    },
    {
        "have": true,
        "link": "/dictionary/english/zootheism",
        "title": "zootheism"
    },
    {
        "have": true,
        "link": "/dictionary/english/zootheistic",
        "title": "zootheistic"
    },
    {
        "have": true,
        "link": "/dictionary/english/zootherapy",
        "title": "zootherapy"
    },
    {
        "have": true,
        "link": "/dictionary/english/zoothome",
        "title": "zoothome"
    },
    {
        "have": true,
        "link": "/dictionary/english/zootomy",
        "title": "zootomy"
    },
    {
        "have": true,
        "link": "/dictionary/english/zootoxin",
        "title": "zootoxin"
    },
    {
        "have": true,
        "link": "/dictionary/english/zootrophic",
        "title": "zootrophic"
    },
    {
        "have": true,
        "link": "/dictionary/english/zootrophy",
        "title": "zootrophy"
    },
    {
        "have": true,
        "link": "/dictionary/english/zooty",
        "title": "zooty"
    },
    {
        "have": true,
        "link": "/dictionary/english/zootype",
        "title": "zootype"
    },
    {
        "have": true,
        "link": "/dictionary/english/zootypic",
        "title": "zootypic"
    },
    {
        "have": true,
        "link": "/dictionary/english/zooxanthella",
        "title": "zooxanthella"
    },
    {
        "have": true,
        "link": "/dictionary/english/zooxanthellae",
        "title": "zooxanthellae"
    },
    {
        "have": true,
        "link": "/dictionary/english/zoozoo",
        "title": "zoozoo"
    },
    {
        "have": true,
        "link": "/dictionary/english/zopilote",
        "title": "zopilote"
    },
    {
        "have": true,
        "link": "/dictionary/english/zoppa",
        "title": "zoppa"
    },
    {
        "have": true,
        "link": "/dictionary/english/zorb",
        "title": "Zorb"
    },
    {
        "have": true,
        "link": "/dictionary/english/zorbing",
        "title": "zorbing"
    },
    {
        "have": true,
        "link": "/dictionary/english/zorbonaut",
        "title": "zorbonaut"
    },
    {
        "have": true,
        "link": "/dictionary/english/zorgite",
        "title": "zorgite"
    },
    {
        "have": true,
        "link": "/dictionary/english/zori",
        "title": "zori"
    },
    {
        "have": true,
        "link": "/dictionary/english/zorilla",
        "title": "zorilla"
    },
    {
        "have": true,
        "link": "/dictionary/english/zorille",
        "title": "zorille"
    },
    {
        "have": true,
        "link": "/dictionary/english/zorino",
        "title": "zorino"
    },
    {
        "have": true,
        "link": "/dictionary/english/zorn",
        "title": "Zorn"
    },
    {
        "have": true,
        "link": "/dictionary/english/zoroaster",
        "title": "Zoroaster"
    },
    {
        "have": true,
        "link": "/dictionary/english/zoroastrian",
        "title": "Zoroastrian"
    },
    {
        "have": true,
        "link": "/dictionary/english/zoroastrianism",
        "title": "Zoroastrianism"
    },
    {
        "have": true,
        "link": "/dictionary/english/zorrilla-y-moral_2",
        "title": "Zorrilla (y Moral)"
    },
    {
        "have": true,
        "link": "/dictionary/english/zorrilla-y-moral_1",
        "title": "Zorrilla y Moral"
    },
    {
        "have": true,
        "link": "/dictionary/english/zorro",
        "title": "zorro"
    },
    {
        "have": true,
        "link": "/dictionary/english/zoster",
        "title": "zoster"
    },
    {
        "have": true,
        "link": "/dictionary/english/zouave",
        "title": "Zouave"
    },
    {
        "have": true,
        "link": "/dictionary/english/zoug",
        "title": "Zoug"
    },
    {
        "have": true,
        "link": "/dictionary/english/zouk",
        "title": "zouk"
    },
    {
        "have": true,
        "link": "/dictionary/english/zounds",
        "title": "zounds"
    },
    {
        "have": true,
        "link": "/dictionary/english/zowie",
        "title": "zowie"
    },
    {
        "have": true,
        "link": "/dictionary/english/zoysia",
        "title": "zoysia"
    },
    {
        "have": true,
        "link": "/dictionary/english/zp",
        "title": "Zp"
    },
    {
        "have": true,
        "link": "/dictionary/english/zpg",
        "title": "ZPG"
    },
    {
        "have": true,
        "link": "/dictionary/english/zr",
        "title": "Zr"
    },
    {
        "have": true,
        "link": "/dictionary/english/zre",
        "title": "ZRE"
    },
    {
        "have": true,
        "link": "/dictionary/english/zsigmondy",
        "title": "Zsigmondy"
    },
    {
        "have": true,
        "link": "/dictionary/english/zucchetto",
        "title": "zucchetto"
    },
    {
        "have": true,
        "link": "/dictionary/english/zucchini",
        "title": "zucchini"
    },
    {
        "have": true,
        "link": "/dictionary/english/zuckerberg",
        "title": "Zuckerberg"
    },
    {
        "have": true,
        "link": "/dictionary/english/zuckerman",
        "title": "Zuckerman"
    },
    {
        "have": true,
        "link": "/dictionary/english/zufolo",
        "title": "zufolo"
    },
    {
        "have": true,
        "link": "/dictionary/english/zug",
        "title": "Zug"
    },
    {
        "have": true,
        "link": "/dictionary/english/zugspitze",
        "title": "Zugspitze"
    },
    {
        "have": true,
        "link": "/dictionary/english/zugzwang",
        "title": "zugzwang"
    },
    {
        "have": true,
        "link": "/dictionary/english/zuid-holland",
        "title": "Zuid-Holland"
    },
    {
        "have": true,
        "link": "/dictionary/english/zuider-zee",
        "title": "Zuider Zee"
    },
    {
        "have": true,
        "link": "/dictionary/english/zuidholland",
        "title": "Zuidholland"
    },
    {
        "have": true,
        "link": "/dictionary/english/zukerman",
        "title": "Zukerman"
    },
    {
        "have": true,
        "link": "/dictionary/english/zuloaga",
        "title": "Zuloaga"
    },
    {
        "have": true,
        "link": "/dictionary/english/zulu",
        "title": "Zulu"
    },
    {
        "have": true,
        "link": "/dictionary/english/zululand",
        "title": "Zululand"
    },
    {
        "have": true,
        "link": "/dictionary/english/zuma",
        "title": "Zuma"
    },
    {
        "have": true,
        "link": "/dictionary/english/zumba",
        "title": "Zumba"
    },
    {
        "have": true,
        "link": "/dictionary/english/zumbooruk",
        "title": "zumbooruk"
    },
    {
        "have": true,
        "link": "/dictionary/english/zungaria",
        "title": "Zungaria"
    },
    {
        "have": true,
        "link": "/dictionary/english/zuni",
        "title": "Zuñi"
    },
    {
        "have": true,
        "link": "/dictionary/english/zupa",
        "title": "zupa"
    },
    {
        "have": true,
        "link": "/dictionary/english/zupan",
        "title": "zupan"
    },
    {
        "have": true,
        "link": "/dictionary/english/zuppa-inglese",
        "title": "zuppa inglese"
    },
    {
        "have": true,
        "link": "/dictionary/english/zurbaran",
        "title": "Zurbarán"
    },
    {
        "have": true,
        "link": "/dictionary/english/zurich",
        "title": "Zürich"
    },
    {
        "have": true,
        "link": "/dictionary/english/zuyder-zee",
        "title": "Zuyder Zee"
    },
    {
        "have": true,
        "link": "/dictionary/english/zuz",
        "title": "zuz"
    },
    {
        "have": true,
        "link": "/dictionary/english/zw",
        "title": "zw"
    },
    {
        "have": true,
        "link": "/dictionary/english/zwanziger",
        "title": "zwanziger"
    },
    {
        "have": true,
        "link": "/dictionary/english/zweig",
        "title": "Zweig"
    },
    {
        "have": true,
        "link": "/dictionary/english/zwickau",
        "title": "Zwickau"
    },
    {
        "have": true,
        "link": "/dictionary/english/zwicky",
        "title": "Zwicky"
    },
    {
        "have": true,
        "link": "/dictionary/english/zwieback",
        "title": "zwieback"
    },
    {
        "have": true,
        "link": "/dictionary/english/zwingli",
        "title": "Zwingli"
    },
    {
        "have": true,
        "link": "/dictionary/english/zwinglian",
        "title": "Zwinglian"
    },
    {
        "have": true,
        "link": "/dictionary/english/zwischenzug",
        "title": "zwischenzug"
    },
    {
        "have": true,
        "link": "/dictionary/english/zwitterion",
        "title": "zwitterion"
    },
    {
        "have": true,
        "link": "/dictionary/english/zwolle",
        "title": "Zwolle"
    },
    {
        "have": true,
        "link": "/dictionary/english/zworykin",
        "title": "Zworykin"
    },
    {
        "have": true,
        "link": "/dictionary/english/zyban",
        "title": "Zyban"
    },
    {
        "have": true,
        "link": "/dictionary/english/zydeco",
        "title": "zydeco"
    },
    {
        "have": true,
        "link": "/dictionary/english/zyg",
        "title": "zyg-"
    },
    {
        "have": true,
        "link": "/dictionary/english/zygaenid",
        "title": "zygaenid"
    },
    {
        "have": true,
        "link": "/dictionary/english/zygal",
        "title": "zygal"
    },
    {
        "have": true,
        "link": "/dictionary/english/zygantrum",
        "title": "zygantrum"
    },
    {
        "have": true,
        "link": "/dictionary/english/zygapophyses",
        "title": "zygapophyses"
    },
    {
        "have": true,
        "link": "/dictionary/english/zygapophysial",
        "title": "zygapophysial"
    },
    {
        "have": true,
        "link": "/dictionary/english/zygapophysis",
        "title": "zygapophysis"
    },
    {
        "have": true,
        "link": "/dictionary/english/zygo",
        "title": "zygo-"
    },
    {
        "have": true,
        "link": "/dictionary/english/zygobranch",
        "title": "zygobranch"
    },
    {
        "have": true,
        "link": "/dictionary/english/zygobranchiate",
        "title": "zygobranchiate"
    },
    {
        "have": true,
        "link": "/dictionary/english/zygocacti",
        "title": "zygocacti"
    },
    {
        "have": true,
        "link": "/dictionary/english/zygocactus",
        "title": "zygocactus"
    },
    {
        "have": true,
        "link": "/dictionary/english/zygocardiac",
        "title": "zygocardiac"
    },
    {
        "have": true,
        "link": "/dictionary/english/zygodactyl",
        "title": "zygodactyl"
    },
    {
        "have": true,
        "link": "/dictionary/english/zygodactylic",
        "title": "zygodactylic"
    },
    {
        "have": true,
        "link": "/dictionary/english/zygodactylous",
        "title": "zygodactylous"
    },
    {
        "have": true,
        "link": "/dictionary/english/zygodont",
        "title": "zygodont"
    },
    {
        "have": true,
        "link": "/dictionary/english/zygogenesis",
        "title": "zygogenesis"
    },
    {
        "have": true,
        "link": "/dictionary/english/zygoid",
        "title": "zygoid"
    },
    {
        "have": true,
        "link": "/dictionary/english/zygoma",
        "title": "zygoma"
    },
    {
        "have": true,
        "link": "/dictionary/english/zygomata",
        "title": "zygomata"
    },
    {
        "have": true,
        "link": "/dictionary/english/zygomatic",
        "title": "zygomatic"
    },
    {
        "have": true,
        "link": "/dictionary/english/zygomatic-arch",
        "title": "zygomatic arch"
    },
    {
        "have": true,
        "link": "/dictionary/english/zygomatic-bone",
        "title": "zygomatic bone"
    },
    {
        "have": true,
        "link": "/dictionary/english/zygomatic-process",
        "title": "zygomatic process"
    },
    {
        "have": true,
        "link": "/dictionary/english/zygomorphic",
        "title": "zygomorphic"
    },
    {
        "have": true,
        "link": "/dictionary/english/zygomycete",
        "title": "zygomycete"
    },
    {
        "have": true,
        "link": "/dictionary/english/zygon",
        "title": "zygon"
    },
    {
        "have": true,
        "link": "/dictionary/english/zygophyllaceous",
        "title": "zygophyllaceous"
    },
    {
        "have": true,
        "link": "/dictionary/english/zygophyte",
        "title": "zygophyte"
    },
    {
        "have": true,
        "link": "/dictionary/english/zygopleural",
        "title": "zygopleural"
    },
    {
        "have": true,
        "link": "/dictionary/english/zygosis",
        "title": "zygosis"
    },
    {
        "have": true,
        "link": "/dictionary/english/zygosity",
        "title": "zygosity"
    },
    {
        "have": true,
        "link": "/dictionary/english/zygosphene",
        "title": "zygosphene"
    },
    {
        "have": true,
        "link": "/dictionary/english/zygospore",
        "title": "zygospore"
    },
    {
        "have": true,
        "link": "/dictionary/english/zygote",
        "title": "zygote"
    },
    {
        "have": true,
        "link": "/dictionary/english/zygotene",
        "title": "zygotene"
    },
    {
        "have": true,
        "link": "/dictionary/english/zym",
        "title": "zym-"
    },
    {
        "have": true,
        "link": "/dictionary/english/zymase",
        "title": "zymase"
    },
    {
        "have": true,
        "link": "/dictionary/english/zyme",
        "title": "zyme"
    },
    {
        "have": true,
        "link": "/dictionary/english/zymic",
        "title": "zymic"
    },
    {
        "have": true,
        "link": "/dictionary/english/zymite",
        "title": "zymite"
    },
    {
        "have": true,
        "link": "/dictionary/english/zymo",
        "title": "zymo-"
    },
    {
        "have": true,
        "link": "/dictionary/english/zymogen",
        "title": "zymogen"
    },
    {
        "have": true,
        "link": "/dictionary/english/zymogeneses",
        "title": "zymogeneses"
    },
    {
        "have": true,
        "link": "/dictionary/english/zymogenesis",
        "title": "zymogenesis"
    },
    {
        "have": true,
        "link": "/dictionary/english/zymogenic",
        "title": "zymogenic"
    },
    {
        "have": true,
        "link": "/dictionary/english/zymogram",
        "title": "zymogram"
    },
    {
        "have": true,
        "link": "/dictionary/english/zymoid",
        "title": "zymoid"
    },
    {
        "have": true,
        "link": "/dictionary/english/zymology",
        "title": "zymology"
    },
    {
        "have": true,
        "link": "/dictionary/english/zymolysis",
        "title": "zymolysis"
    },
    {
        "have": true,
        "link": "/dictionary/english/zymome",
        "title": "zymome"
    },
    {
        "have": true,
        "link": "/dictionary/english/zymometer",
        "title": "zymometer"
    },
    {
        "have": true,
        "link": "/dictionary/english/zymosan",
        "title": "zymosan"
    },
    {
        "have": true,
        "link": "/dictionary/english/zymoses",
        "title": "zymoses"
    },
    {
        "have": true,
        "link": "/dictionary/english/zymosimeter",
        "title": "zymosimeter"
    },
    {
        "have": true,
        "link": "/dictionary/english/zymosis",
        "title": "zymosis"
    },
    {
        "have": true,
        "link": "/dictionary/english/zymotechnic",
        "title": "zymotechnic"
    },
    {
        "have": true,
        "link": "/dictionary/english/zymotechnical",
        "title": "zymotechnical"
    },
    {
        "have": true,
        "link": "/dictionary/english/zymotechnics",
        "title": "zymotechnics"
    },
    {
        "have": true,
        "link": "/dictionary/english/zymotic",
        "title": "zymotic"
    },
    {
        "have": true,
        "link": "/dictionary/english/zymurgy",
        "title": "zymurgy"
    },
    {
        "have": true,
        "link": "/dictionary/english/zyrian",
        "title": "Zyrian"
    },
    {
        "have": true,
        "link": "/dictionary/english/zythum",
        "title": "zythum"
    },
    {
        "have": true,
        "link": "/dictionary/english/zyzzyva",
        "title": "zyzzyva"
    },
    {
        "have": true,
        "link": "/dictionary/english/zzz",
        "title": "zzz"
    }
]