{
    "def_groups": [
        {
            "gram_groups": [
                {
                    "defs": [
                        {
                            "def": "not, lack of, the opposite of; see also non-[1]",
                            "example": "unconcern, unreason, unwonted"
                        },
                        {
                            "def": "back; the reverse or removal of (added to verbs to indicate a reversal of the action and to nouns to indicate a removal or release of the thing mentioned or from the condition, place, etc. indicated, and sometimes used merely as an intensive [unbind, unfold; unbonnet, unbosom; unloose])"
                        }
                    ]
                }
            ],
            "semantics": "The following list includes many of the more common compounds formed with un- (either sense) that do not have special meanings ",
            "word": "un-"
        }
    ],
    "examples": [
        {
            "example": "The panic slowly subsided to un- easy apprehension while the minutes crawled by as if they were each an hour long."
        }
    ],
    "frequency": "",
    "nearby_words": [
        "Umbundu",
        "umiak",
        "umlaut",
        "ump",
        "umpirage",
        "umpire",
        "umpteen",
        "Umtata",
        "UMW",
        "UN",
        "un-American",
        "Una",
        "una corda",
        "unabashed",
        "unable",
        "unabridged",
        "unaccommodated",
        "unaccompanied",
        "unaccomplished",
        "unaccountable"
    ],
    "related_words": [
        "UN",
        "un-American",
        "vingt-et-un"
    ],
    "translations": []
}